<?xml version="1.0" encoding="utf-8"?>
<!-- Generator: Adobe Illustrator 24.1.2, SVG Export Plug-In . SVG Version: 6.00 Build 0)  -->
<svg version="1.1" id="Capa_1" xmlns="http://www.w3.org/2000/svg" xmlns:xlink="http://www.w3.org/1999/xlink" x="0px" y="0px"
	 viewBox="0 0 48.2 48.2" style="enable-background:new 0 0 48.2 48.2;" xml:space="preserve">
<style type="text/css">
	.st0{fill:#030104;}
</style>
<g>
	<path class="st0" d="M39.2,16.9c-0.8-0.6-1.7-1.2-2.7-1.6c-2.2-0.9-4.4-1.6-6.6-2.4c-0.5-0.2-0.9-0.8-0.9-1.3
		c-0.1-1.6-1-3.1-2.5-4.2c-0.6-0.4-0.6-0.7-0.3-1.3c0.2-0.3,0.4-0.7,0.5-1c0.2-0.5,0.1-1.2-0.4-1.4c-1.2-0.5-3-0.6-4.3,0
		c-0.5,0.2-0.7,1-0.4,1.5c0.1,0.3,0.2,0.6,0.4,0.9c0.2,0.5,0,1.2-0.4,1.5c-1.3,1.1-2,2.4-2.1,4.1c0,0.6-0.4,1.1-0.9,1.3
		c-1.9,0.6-3.8,1.2-5.6,1.9c-1.3,0.5-2.6,1.2-3.7,2.1c-0.8,0.7-1.6,1.8-1.9,2.8c-0.4,1.4,0,4.3,1.1,6.2c0.3,0.5,0.9,0.5,1.2,0.1
		c0.3-0.4,0.7-0.8,1.1-1.1c1-0.8,1-1.9,0.7-3c-0.1-0.3-0.3-0.7-0.4-1c-0.2-0.5-0.1-0.9,0.4-0.8c0.3,0,0.6,0,0.8,0c0.8,0,2-0.4,2.4,0
		c0.5,0.5,0.4,1.6,0.5,2.5c0,0.4-0.2,1-0.5,1.3c-1.1,1.1-2.4,2-3.5,3.1c-1.9,1.8-2.8,3.9-1.9,6.5c0.8,2.2,1.6,4.5,2.4,6.7
		c0.8,2.2,0.5,3-1.7,4c-0.1,0-0.2,0.1-0.2,0.2c-0.1,0.1-0.1,0.2,0,0.3c0.1,0.1,0.2,0.1,0.2,0.1c1.8-0.1,3.6-0.2,5.3-0.5
		c0.5-0.1,1-0.5,0.4-1.2c-0.4-0.5-0.6-1.3-0.6-1.9c0.1-1.9,0.3-3.8,0.4-5.7c0-0.4-0.1-0.8-0.1-1.2c-0.1-0.5,0.2-1.1,0.7-1.3
		c1.2-0.5,2.4-1,3.6-1.4c0.5-0.2,0.9,0.1,0.8,0.6c-0.1,0.5-0.2,1-0.2,1.5c-0.2,1.4,0.4,2.3,1.6,2.3c3.1,0,6-0.7,8.6-2.4
		c0.8-0.5,1.5-0.7,2.2-0.6c0.5,0.1,1,0.7,1,1.2c0,1.1,0,2.2,0,3.3c0.1,1.8,0.6,3.6-0.3,5.4c-0.3,0.5-0.2,1,0.2,1.2
		c0.3,0.1,0.5,0.3,0.8,0.3c1.4,0.2,2.7,0.2,4.1,0.3c0.1,0,0.3,0,0.4,0c0.2,0,0.4-0.1,0.4-0.2c0-0.1-0.1-0.2-0.3-0.3
		c-0.1-0.1-0.2-0.1-0.4-0.2c-1.7-0.7-2.2-1.9-1.5-3.6c0.6-1.6,1.4-3.2,1.9-4.9c0.5-1.6,1-3.4,0.8-5c-0.4-2.5-2.3-3.9-4.1-5.5
		c-0.4-0.4-0.9-0.2-1,0.3c-2.3,6.8-7.8,9-11.9,9c-0.6,0-1-0.5-0.9-1c0-0.3,0.1-0.6,0.2-0.9c0.2-0.8-0.1-1.1-0.8-1.5
		c-1.2-0.8-2.4-1.6-3.3-2.6c-0.8-0.9-1.7-1.9-2-3.2c-0.1-0.5,0.1-0.6,0.5-0.2c2.6,3,5.9,4.7,9.9,3.3c3.5-1.2,7-3,7.7-7.2
		c0.1-0.5,0.6-1,1.1-1c0.6,0,1.2,0,1.8,0c0.6,0,0.9,0.4,0.7,1c-0.3,1-0.6,1.9-0.4,2.7c0.3,0.9,1.1,1.6,1.9,2.3
		c0.4,0.4,0.9,0.3,1.2-0.2c0.7-1.5,0.9-2.9,1.1-4.4C41.3,19.6,40.7,18.1,39.2,16.9z M24.1,15.5c-1.9,0-3.2-1.4-3.2-3.5
		c0-2.2,1.5-4.1,3.3-4.1c1.7,0,3.1,1.9,3.1,4.1C27.3,14.1,26.1,15.5,24.1,15.5z"/>
</g>
</svg>
